Sex and respiratory system
…
ℹ Use `spec()` to retrieve the full column specification for this data.
ℹ Specify the column types or set `show_col_types = FALSE` to quiet this message.

data<- data |> mutate(id=as.integer(id), 
                sex = factor(sex, levels=c(0,1), labels=c("f","m")), 
                respsymptoms=factor(respsymptoms, levels=c(0,1), labels=c("no","yes")), 
                asthma_hist=factor(asthma_hist))
data

# A tibble: 636 × 7
      id  fev1   age height sex   respsymptoms asthma_hist    
   <int> <dbl> <dbl>  <dbl> <fct> <fct>        <fct>          
 1   638  0.64  7.47   118. m     yes          current asthma 
 2   527  0.68  8.21   113. f     yes          never          
 3    33  0.81  8.42   121. f     no           never          
 4   289  0.81  7.46   109. f     no           never          
 5   254  0.82  8.95   128  f     yes          current asthma 
 6   355  0.83  8.48   115  f     yes          previous asthma
 7   484  0.85  8.47   132. m     yes          previous asthma
 8    86  0.86  7.56   113  f     no           never          
 9   601  0.86  8.58   127. m     no           never          
10   242  0.89  9.05   109. m     yes          never          
# ℹ 626 more rows
…
